<?xml version="1.0" encoding="UTF-8" standalone="no"?>
<!-- Created with Inkscape (http://www.inkscape.org/) -->

<svg
   xmlns:dc="http://purl.org/dc/elements/1.1/"
   xmlns:cc="http://creativecommons.org/ns#"
   xmlns:rdf="http://www.w3.org/1999/02/22-rdf-syntax-ns#"
   xmlns:svg="http://www.w3.org/2000/svg"
   xmlns="http://www.w3.org/2000/svg"
   xmlns:xlink="http://www.w3.org/1999/xlink"
   xmlns:sodipodi="http://sodipodi.sourceforge.net/DTD/sodipodi-0.dtd"
   xmlns:inkscape="http://www.inkscape.org/namespaces/inkscape"
   width="210mm"
   height="297mm"
   viewBox="0 0 744.09448819 1052.3622047"
   id="svg2"
   version="1.1"
   inkscape:version="0.91 r13725"
   sodipodi:docname="HiberBear.svg">
  <defs
     id="defs4">
    <linearGradient
       inkscape:collect="always"
       id="linearGradient3342">
      <stop
         style="stop-color:#552200;stop-opacity:1;"
         offset="0"
         id="stop3344" />
      <stop
         style="stop-color:#552200;stop-opacity:0;"
         offset="1"
         id="stop3346" />
    </linearGradient>
    <linearGradient
       inkscape:collect="always"
       xlink:href="#linearGradient3342"
       id="linearGradient3348"
       x1="303.57144"
       y1="198.07649"
       x2="335.71429"
       y2="37.362206"
       gradientUnits="userSpaceOnUse" />
  </defs>
  <sodipodi:namedview
     id="base"
     pagecolor="#ffffff"
     bordercolor="#666666"
     borderopacity="1.0"
     inkscape:pageopacity="0.0"
     inkscape:pageshadow="2"
     inkscape:zoom="0.98994949"
     inkscape:cx="86.418984"
     inkscape:cy="721.72681"
     inkscape:document-units="px"
     inkscape:current-layer="layer1"
     showgrid="false"
     inkscape:window-width="1920"
     inkscape:window-height="1026"
     inkscape:window-x="0"
     inkscape:window-y="25"
     inkscape:window-maximized="1" />
  <metadata
     id="metadata7">
    <rdf:RDF>
      <cc:Work
         rdf:about="">
        <dc:format>image/svg+xml</dc:format>
        <dc:type
           rdf:resource="http://purl.org/dc/dcmitype/StillImage" />
        <dc:title></dc:title>
      </cc:Work>
    </rdf:RDF>
  </metadata>
  <g
     inkscape:label="Ebene 1"
     inkscape:groupmode="layer"
     id="layer1">
    <path
       style="fill:url(#linearGradient3348);fill-opacity:1;fill-rule:evenodd;stroke:#000000;stroke-width:1px;stroke-linecap:butt;stroke-linejoin:miter;stroke-opacity:1"
       d="m 267.85714,145.21934 17.85715,-6.42856 41.42857,0.71428 15,7.85714 10.71428,13.57143 2.85715,19.28572 -3.57143,15 -11.42857,15 -17.14286,5 -3.57143,5.71428 -8.57143,5 -17.85714,0 -7.85714,-7.14285 -3.57143,-6.42858 -11.42857,-4.99999 -10,-10.71429 L 255,182.3622 l 2.14286,-23.57143 z"
       id="path3340"
       inkscape:connector-curvature="0"
       sodipodi:nodetypes="ccccccccccccccccccc"
       inkscape:export-xdpi="90"
       inkscape:export-ydpi="90" />
    <path
       style="fill:none;fill-rule:evenodd;stroke:#000000;stroke-width:1px;stroke-linecap:butt;stroke-linejoin:miter;stroke-opacity:1"
       d="m 275.17857,169.14792 c 0.48914,-0.20754 0.92734,-0.17857 1.42857,-0.17857 0.15744,0 0.38356,0.038 0.53572,0 0.18261,-0.0457 0.3531,-0.13292 0.53571,-0.17858 0.1197,-0.0299 0.85373,0.0391 0.89286,0 0.0421,-0.0421 -0.0421,-0.13648 0,-0.17857 0.0421,-0.0421 0.11905,0 0.17857,0 0.29762,0 0.59524,0 0.89286,0 0.0595,0 0.13648,0.0421 0.17857,0 0.0421,-0.0421 -0.0421,-0.13648 0,-0.17857 0.0421,-0.0421 0.11905,0 0.17857,0 0.1242,0 0.82828,0.0323 0.89286,0 0.0753,-0.0376 0.10328,-0.14092 0.17857,-0.17857 0.0646,-0.0323 0.76865,0 0.89286,0 0.0595,0 0.11904,0 0.17857,0 0.0595,0 0.17857,-0.0595 0.17857,0 0,0.0595 -0.11905,0 -0.17857,0 -0.2381,0 -0.47619,0 -0.71429,0 -0.47619,0 0.0595,-0.0595 -0.17857,0.17857 -0.0421,0.0421 -0.11905,0 -0.17857,0 -0.0595,0 -0.11905,0 -0.17857,0 -0.53572,0 -1.07143,0 -1.60715,0 -0.12657,0 -1.02525,-0.0231 -1.07142,0 -0.0753,0.0377 -0.17858,0.0944 -0.17858,0.17857 0,0.0595 0.11905,0 0.17858,0 0.0595,0 0.11904,0 0.17857,0 0.0595,0 0.12533,0.0266 0.17857,0 0.44132,-0.22066 -0.0616,-0.17857 0.35714,-0.17857 0.71429,0 1.42857,0 2.14286,0 0.59524,0 1.19048,0 1.78571,0 0.0934,0 0.66734,-0.0235 0.71429,0 0.0753,0.0377 0.10328,0.14093 0.17857,0.17857 0.14286,0.0714 0.39286,-0.0714 0.53571,0 0.0753,0.0376 0.10328,0.14093 0.17858,0.17857 0.11223,0.0561 0.60205,-0.0561 0.71428,0 0.44132,0.22067 -0.0616,0.17858 0.35714,0.17858 0.12658,0 1.02526,-0.0231 1.07143,0 0.44133,0.22066 -0.0616,0.17857 0.35715,0.17857 0.17857,0 0.35714,0 0.53571,0 0.0595,0 0.2381,0 0.17857,0 -0.11905,0 -0.47619,0 -0.35714,0 0.41667,0 0.83333,0 1.25,0 0.17857,0 0.35714,0 0.53571,0 0.0595,0 0.17857,-0.0595 0.17857,0 0,0.0313 -0.64926,-0.0325 -0.71428,0 -0.0753,0.0376 -0.10328,0.14092 -0.17857,0.17857 -0.0646,0.0323 -0.76866,0 -0.89286,0 -0.35714,0 -0.71429,0 -1.07143,0 -0.11905,0 -0.24041,0.0233 -0.35714,0 -0.92897,-0.18579 -0.17857,-0.11905 -0.89286,-0.35714 -0.0695,-0.0232 -0.508,0.0277 -0.53571,0 -0.0421,-0.0421 0.0421,-0.13649 0,-0.17858 -0.0842,-0.0842 -0.25067,0.0532 -0.35715,0 -0.0753,-0.0376 -0.10327,-0.14092 -0.17857,-0.17857 -0.0532,-0.0266 -0.12533,0.0266 -0.17857,0 -0.0753,-0.0376 -0.10328,-0.14092 -0.17857,-0.17857 -0.0543,-0.0272 -0.45529,0 -0.53571,0 -0.35715,0 -0.71429,0 -1.07143,0 -0.11905,0 -0.24165,0.0289 -0.35715,0 -0.18261,-0.0456 -0.3531,-0.13292 -0.53571,-0.17857 -0.0733,-0.0183 -0.3355,0.0217 -0.35714,0 -0.0421,-0.0421 0.0421,-0.13648 0,-0.17857 -0.0421,-0.0421 -0.11905,0 -0.17857,0 -0.0595,0 -0.11905,0 -0.17858,0 -0.83333,0 -1.66666,0 -2.5,0 -0.0595,0 -0.11904,0 -0.17857,0 -0.0595,0 -0.13648,-0.0421 -0.17857,0 -0.0421,0.0421 0.0421,0.13648 0,0.17857 -0.0893,0.0893 -0.44643,-0.0893 -0.53571,0 -0.0421,0.0421 0.0421,0.13648 0,0.17857 -0.0421,0.0421 -0.12533,-0.0266 -0.17857,0 -0.0753,0.0377 -0.10328,0.14093 -0.17858,0.17857 -0.14285,0.0714 -0.39285,-0.0714 -0.53571,0 -0.0753,0.0376 -0.10328,0.14093 -0.17857,0.17857 -0.10648,0.0532 -0.25066,-0.0532 -0.35714,0 -0.19196,0.096 -0.41667,0.53572 -0.53572,0.35715 -0.11905,-0.17857 0.34376,-0.26117 0.53572,-0.35715 0.0543,-0.0271 0.59097,0 0.71428,0 0.47619,0 0.95238,0 1.42857,0 0.042,0 0.60224,0.0665 0.35715,-0.17857 -0.0728,-0.0728 -0.71429,0.0908 -0.71429,0 0,-0.31946 0.75591,-0.11009 0.89286,-0.17857 0.0753,-0.0376 0.10328,-0.14092 0.17857,-0.17857 0.11224,-0.0561 0.60205,0.0561 0.71428,0 0.0753,-0.0376 0.10328,-0.14093 0.17858,-0.17857 0.0532,-0.0266 0.11904,0 0.17857,0 0.0595,0 0.11905,0 0.17857,0 0.29762,0 0.59524,0 0.89286,0 0.0595,0 0.11904,0 0.17857,0 0.0595,0 0.13648,0.0421 0.17857,0 0.0421,-0.0421 -0.0421,-0.13648 0,-0.17857 0.008,-0.008 0.80866,0 0.89286,0 0.77381,0 1.54762,0 2.32142,0 0.35715,0 0.71429,0 1.07143,0 0.0595,0 0.17857,-0.0595 0.17857,0 0,0.0595 -0.23809,0 -0.17857,0 0.11905,0 0.25067,-0.0532 0.35715,0 0.0532,0.0266 -0.0421,0.13648 0,0.17857 0.0421,0.0421 0.13648,-0.0421 0.17857,0 0.0421,0.0421 -0.0421,0.13648 0,0.17857 0.0421,0.0421 0.17857,-0.0595 0.17857,0 0,0.0595 -0.11905,0 -0.17857,0"
       id="path3350"
       inkscape:connector-curvature="0"
       inkscape:export-xdpi="90"
       inkscape:export-ydpi="90" />
    <path
       style="fill:none;fill-rule:evenodd;stroke:#000000;stroke-width:1px;stroke-linecap:butt;stroke-linejoin:miter;stroke-opacity:1"
       d="m 321.42857,169.68363 c -0.65476,0 -1.30952,0 -1.96428,0"
       id="path3352"
       inkscape:connector-curvature="0"
       inkscape:export-xdpi="90"
       inkscape:export-ydpi="90" />
    <path
       style="fill:none;fill-rule:evenodd;stroke:#000000;stroke-width:1px;stroke-linecap:butt;stroke-linejoin:miter;stroke-opacity:1"
       d="m 318.21429,169.50506 c 0.77381,0 1.54762,0 2.32142,0 0.0804,0 0.48137,0.0272 0.53572,0 0.0753,-0.0376 0.10328,-0.14093 0.17857,-0.17857 0.0543,-0.0272 0.45529,0 0.53571,0 0.0595,0 0.2381,0 0.17858,0 -0.11905,0 -0.47619,0 -0.35715,0 0.95238,0 1.90477,0 2.85715,0 0.0595,0 0.11904,0 0.17857,0 0.0595,0 0.17857,-0.0595 0.17857,0 0,0.0595 -0.2381,0 -0.17857,0 0.23809,0 0.47619,0 0.71428,0 0.0934,0 0.66734,-0.0235 0.71429,0 0.0753,0.0376 0.0987,0.15195 0.17857,0.17857 0.11294,0.0377 0.25066,-0.0532 0.35714,0 0.0532,0.0266 -0.0421,0.13648 0,0.17857 0.0421,0.0421 0.13649,-0.0421 0.17857,0 0.0421,0.0421 0,0.11905 0,0.17857 0.0595,0 0.13649,-0.0421 0.17858,0 0.0421,0.0421 -0.0421,0.13648 0,0.17857 0.0421,0.0421 0.13648,-0.0421 0.17857,0 0.0421,0.0421 -0.0421,0.13649 0,0.17858 0.006,0.006 0.4924,0 0.53571,0 0.2067,0 0.73343,0.0399 0.89286,0 0.12912,-0.0323 0.23087,-0.13649 0.35714,-0.17858 0.0565,-0.0188 0.11905,0 0.17857,0 0.17857,0 0.35715,0 0.53572,0 0.41666,0 0.83333,0 1.25,0 0.17857,0 0.35714,0 0.53571,0 0.0595,0 0.17857,-0.0595 0.17857,0 0,0.0595 -0.23809,0 -0.17857,0 0.11905,0 0.2381,0 0.35714,0 0.0433,0 0.52998,-0.006 0.53572,0 0.0421,0.0421 -0.0421,0.13649 0,0.17858 0.0421,0.0421 0.17857,-0.0595 0.17857,0 0,0.0595 -0.23809,0 -0.17857,0 0.17857,0 0.35714,0 0.53571,0 0.0595,0 0.2381,0 0.17857,0 -0.11904,0 -0.23809,0 -0.35714,0"
       id="path3354"
       inkscape:connector-curvature="0"
       inkscape:export-xdpi="90"
       inkscape:export-ydpi="90" />
    <path
       style="fill:none;fill-rule:evenodd;stroke:#000000;stroke-width:1px;stroke-linecap:butt;stroke-linejoin:miter;stroke-opacity:1"
       d="m 280.35714,168.43363 c 0.44275,1.77099 -0.12742,0.472 0.35715,0.71429 0.0753,0.0376 0.10328,0.14092 0.17857,0.17857 0.0366,0.0183 0.51053,0.0252 0.53571,0 0.0421,-0.0421 -0.0266,-0.12533 0,-0.17857 0.19742,-0.39483 0.11083,-0.0554 0.35714,-0.17857 0.39484,-0.19742 0.0554,-0.11083 0.17858,-0.35715 0.0376,-0.0753 0.14092,-0.10328 0.17857,-0.17857 0.0266,-0.0532 0,-0.11905 0,-0.17857 0,-0.0595 0,-0.11905 0,-0.17857 0,-0.0595 0,-0.11905 0,-0.17857 0,-0.0595 0.0421,-0.13648 0,-0.17857 -0.0893,-0.0893 -0.44643,0.0893 -0.53572,0 -0.0421,-0.0421 0.0421,-0.13649 0,-0.17858 -0.008,-0.008 -0.80866,0 -0.89285,0"
       id="path3356"
       inkscape:connector-curvature="0"
       inkscape:export-xdpi="90"
       inkscape:export-ydpi="90" />
    <path
       style="fill:none;fill-rule:evenodd;stroke:#000000;stroke-width:1px;stroke-linecap:butt;stroke-linejoin:miter;stroke-opacity:1"
       d="m 326.60714,169.32649 c -0.29762,0 -0.59523,0 -0.89285,0 -0.0595,0 -0.13649,-0.0421 -0.17858,0 -0.0421,0.0421 0.0421,0.13648 0,0.17857 -0.043,0.043 -0.67131,-0.043 -0.71428,0 -0.0421,0.0421 0.0421,0.13648 0,0.17857 -0.0421,0.0421 -0.13648,-0.0421 -0.17857,0 -0.0421,0.0421 0,0.11905 0,0.17857 0,0.0842 -0.008,0.88477 0,0.89286 0.0421,0.0421 0.11905,0 0.17857,0 0.0595,0 0.11905,0 0.17857,0 0.47619,0 0.95238,0 1.42857,0 0.0804,0 0.48137,0.0272 0.53572,0 0.0753,-0.0376 0.10853,-0.13188 0.17857,-0.17857 0.11074,-0.0738 0.2464,-0.10474 0.35714,-0.17857 0.07,-0.0467 0.11905,-0.11905 0.17857,-0.17857 0.0595,-0.0595 0.14093,-0.10328 0.17857,-0.17858 0.0266,-0.0532 -0.0421,-0.13648 0,-0.17857 0.0421,-0.0421 0.12534,0.0266 0.17857,0 0.0753,-0.0376 0.11905,-0.11904 0.17858,-0.17857 0.0595,-0.0595 0.11904,-0.11905 0.17857,-0.17857 0.0595,-0.0595 0.17857,-0.0944 0.17857,-0.17857 0,-0.0595 -0.11905,0 -0.17857,0 -0.35715,0 -0.71429,0 -1.07143,0 -0.2381,0 -0.47619,0 -0.71429,0 z"
       id="path3358"
       inkscape:connector-curvature="0"
       inkscape:export-xdpi="90"
       inkscape:export-ydpi="90" />
    <path
       style="fill:none;fill-rule:evenodd;stroke:#000000;stroke-width:1px;stroke-linecap:butt;stroke-linejoin:miter;stroke-opacity:1"
       d="m 303.03571,182.18363 -1.60714,0.89286 -1.60714,2.67857 -1.96429,3.39286 -0.35714,2.5 1.25,1.25 1.78571,0.71428 2.14286,0.17857 2.5,0.17858 2.85714,-0.35715 1.78572,-1.42857 1.25,-3.21428 -0.89286,-3.21429 -2.5,-2.32143 -1.07143,-1.25 -1.78571,-0.71428 z"
       id="path3360"
       inkscape:connector-curvature="0"
       inkscape:export-xdpi="90"
       inkscape:export-ydpi="90" />
    <path
       style="fill:none;fill-rule:evenodd;stroke:#000000;stroke-width:1px;stroke-linecap:butt;stroke-linejoin:miter;stroke-opacity:1"
       d="m 288.57143,183.96935 0.53571,6.25 0.71429,5.71428 3.57143,6.96429 3.57143,4.82143 6.60714,2.14285 3.03571,-0.17857 5.17857,-1.60714 2.32143,-1.25 2.67857,-4.28572 1.78572,-5.89285 0.35714,-5.71429 0.53572,-7.14286"
       id="path3362"
       inkscape:connector-curvature="0"
       inkscape:export-xdpi="90"
       inkscape:export-ydpi="90" />
    <path
       style="fill:none;fill-rule:evenodd;stroke:#000000;stroke-width:1px;stroke-linecap:butt;stroke-linejoin:miter;stroke-opacity:1"
       d="m 268.75,144.68363 -3.92857,-2.14286 -2.32143,-4.46428 -1.07143,-5.89286 2.14286,-4.46428 5,-4.46429 c 0,0 5.35714,-0.89286 6.07143,-0.89286 0.71428,0 5.17857,0.89286 5.17857,0.89286 l 3.03571,2.85714 1.96429,4.64286 0.17857,4.28571 -0.71429,4.28572"
       id="path3364"
       inkscape:connector-curvature="0"
       inkscape:export-xdpi="90"
       inkscape:export-ydpi="90" />
    <path
       style="fill:none;fill-rule:evenodd;stroke:#000000;stroke-width:1px;stroke-linecap:butt;stroke-linejoin:miter;stroke-opacity:1"
       d="m 327.5,139.14792 -0.71429,-3.75 1.25,-5.35715 2.85715,-3.57142 3.57143,-2.5 5,-0.53572 4.10714,0.53572 4.28571,2.5 2.32143,3.92857 0.17857,3.92857 -0.35714,3.92857 -1.42857,3.39286 -2.5,2.85714 -3.75,1.96429 -0.71429,0.53571"
       id="path3366"
       inkscape:connector-curvature="0"
       inkscape:export-xdpi="90"
       inkscape:export-ydpi="90" />
    <path
       style="fill:none;fill-rule:evenodd;stroke:#000000;stroke-width:1px;stroke-linecap:butt;stroke-linejoin:miter;stroke-opacity:1"
       d="m 273.39286,140.04077 -3.39286,-2.5 -1.96429,-4.10714 0.89286,-3.03571 2.5,-1.96429 5.71429,-1.07143 1.25,1.96429 1.07143,2.67857 -0.35715,2.85714 -0.89285,2.32143 -1.78572,1.78572 z"
       id="path3368"
       inkscape:connector-curvature="0"
       inkscape:export-xdpi="90"
       inkscape:export-ydpi="90" />
    <path
       style="fill:none;fill-rule:evenodd;stroke:#000000;stroke-width:1px;stroke-linecap:butt;stroke-linejoin:miter;stroke-opacity:1"
       d="m 332.5,138.25506 -0.35714,-3.75 1.96428,-4.46429 3.39286,-1.25 3.21429,0 3.92857,1.42858 1.78571,3.39285 -1.07143,3.39286 -1.42857,3.39286 -3.75,0.89285 -3.39286,-0.17857 -2.5,-1.07143 z"
       id="path3370"
       inkscape:connector-curvature="0"
       inkscape:export-xdpi="90"
       inkscape:export-ydpi="90" />
    <path
       style="fill:#d38d5f"
       d="m 271.98528,138.27891 c -1.47192,-1.08804 -1.54329,-1.17494 -2.35825,-2.87129 -0.46222,-0.9621 -0.84282,-1.91 -0.84579,-2.10643 -0.003,-0.19642 0.1389,-0.83928 0.31526,-1.42857 0.28459,-0.95094 0.44729,-1.17363 1.44684,-1.98028 1.12277,-0.90608 1.1341,-0.91033 3.71543,-1.39305 1.42407,-0.26631 2.6093,-0.46001 2.63384,-0.43043 0.33692,0.40597 1.08222,1.80939 1.45372,2.73738 0.42212,1.05443 0.45896,1.32087 0.34957,2.52806 -0.2639,2.91217 -1.57232,4.77773 -3.94276,5.62161 l -1.25,0.445 -1.51786,-1.122 z"
       id="path3372"
       inkscape:connector-curvature="0"
       inkscape:export-xdpi="90"
       inkscape:export-ydpi="90" />
    <path
       style="fill:#784421"
       d="m 337.61028,140.5304 c -1.43432,-0.17757 -2.87318,-0.86636 -3.78257,-1.81075 -0.723,-0.75082 -0.75268,-0.82847 -0.92882,-2.43038 l -0.18195,-1.65479 0.92882,-2.0727 0.92881,-2.0727 1.42857,-0.52657 c 1.32546,-0.48856 1.57035,-0.52169 3.39286,-0.45903 1.70156,0.0585 2.15768,0.14454 3.41027,0.64322 l 1.44599,0.57568 0.77491,1.4792 0.7749,1.47921 -0.64012,1.95306 c -0.35207,1.07418 -0.87892,2.47956 -1.17078,3.12306 l -0.53065,1.17001 -1.70868,0.39249 c -1.7699,0.40656 -2.33094,0.43514 -4.14156,0.21099 z"
       id="path3374"
       inkscape:connector-curvature="0"
       inkscape:export-xdpi="90"
       inkscape:export-ydpi="90" />
    <path
       style="fill:#784421"
       d="m 267.07457,143.10973 -1.78572,-0.9832 -1.10397,-2.09124 c -1.04955,-1.98815 -1.12981,-2.23135 -1.62817,-4.93351 l -0.52421,-2.84227 1.01089,-2.0854 1.0109,-2.08541 2.37168,-2.1259 2.37169,-2.12589 1.72774,-0.30231 c 3.25021,-0.5687 4.42113,-0.59291 6.87829,-0.14221 l 2.23278,0.40953 1.42839,1.44607 c 1.34143,1.35802 1.48311,1.57789 2.32701,3.61123 l 0.89861,2.16516 0.0257,2.38841 c 0.0164,1.52776 -0.0758,2.92863 -0.25596,3.8876 -0.1549,0.82456 -0.30529,1.52287 -0.33422,1.55179 -0.11108,0.11108 -14.48775,5.25228 -14.6716,5.24667 -0.10674,-0.003 -0.99765,-0.44836 -1.97979,-0.98912 z m 8.03571,-3.02868 c 1.21191,-0.40876 1.59469,-0.64407 2.52383,-1.55149 1.31786,-1.28704 1.93058,-2.66399 2.23507,-5.02277 0.19567,-1.5158 0.18707,-1.59967 -0.29214,-2.84798 -0.55426,-1.44381 -1.9801,-3.87547 -2.27245,-3.87547 -0.10508,0 -1.52571,0.24685 -3.15696,0.54855 -2.81043,0.51979 -3.01273,0.58505 -3.85878,1.24471 -1.86741,1.45602 -1.85411,1.43875 -2.32159,3.01499 -0.24545,0.82758 -0.447,1.63115 -0.4479,1.78572 -9e-4,0.15456 0.44928,1.24531 1.00041,2.42388 l 1.00204,2.14286 1.89999,1.38439 c 1.04499,0.76142 1.98097,1.35066 2.07995,1.30943 0.099,-0.0412 0.82282,-0.29181 1.60853,-0.55682 z"
       id="path3376"
       inkscape:connector-curvature="0"
       inkscape:export-xdpi="90"
       inkscape:export-ydpi="90" />
    <path
       style="fill:#d38d5f"
       d="m 334.54299,142.73534 c -3.97799,-2.09178 -6.60665,-3.57446 -6.55871,-3.6994 0.044,-0.11467 -0.0756,-0.96739 -0.26589,-1.89493 l -0.3459,-1.68642 0.59547,-2.55107 0.59547,-2.55108 1.39595,-1.751 c 1.11439,-1.39782 1.73942,-1.98812 3.09881,-2.92657 l 1.70286,-1.17557 2.38664,-0.22791 c 1.9423,-0.18548 2.73947,-0.18502 4.28176,0.002 1.86109,0.22624 1.93237,0.25231 3.96969,1.45209 l 2.07458,1.22173 1.08814,1.86534 1.08813,1.86535 0.03,2.20427 c 0.0489,3.59239 -0.14417,5.00179 -0.93815,6.84852 -0.49456,1.15029 -1.01328,1.98103 -1.8208,2.91605 -0.98513,1.14067 -1.39924,1.45382 -3.24506,2.45397 -1.1637,0.63055 -2.20097,1.14164 -2.30504,1.13576 -0.10408,-0.006 -3.17665,-1.5816 -6.82795,-3.50159 z m 8.02809,-1.41182 1.82492,-0.45981 0.82226,-1.99554 c 0.45224,-1.09755 1.05042,-2.74839 1.32929,-3.66854 l 0.50704,-1.673 -1.00037,-1.88461 -1.00037,-1.88461 -2.02536,-0.76324 c -1.9136,-0.72113 -2.1288,-0.76329 -3.90035,-0.76412 -1.73921,-8.2e-4 -2.00414,0.0482 -3.65821,0.6766 l -1.78322,0.67747 -1.06239,2.36809 -1.06238,2.3681 0.1903,2.14118 0.19029,2.14118 0.86959,0.89718 c 0.83391,0.86037 2.00561,1.53033 3.54816,2.02879 1.2668,0.40934 4.15004,0.31412 6.2108,-0.20512 z"
       id="path3378"
       inkscape:connector-curvature="0"
       inkscape:export-xdpi="90"
       inkscape:export-ydpi="90" />
    <path
       style="fill:#d38d5f"
       d="m 336.93991,140.33947 c -1.04356,-0.24595 -2.30039,-0.9581 -3.03897,-1.72196 -0.54607,-0.56476 -0.70649,-0.89736 -0.84718,-1.7565 -0.29162,-1.78081 -0.2195,-2.25354 0.64171,-4.20643 0.44953,-1.01936 0.91159,-1.9443 1.02679,-2.05541 0.1152,-0.11111 0.75661,-0.38041 1.42536,-0.59843 1.06028,-0.34566 1.49456,-0.38643 3.39286,-0.31847 1.89803,0.068 2.33603,0.14463 3.41856,0.59843 1.23521,0.51781 1.24559,0.52798 2.01021,1.97016 l 0.76859,1.44966 -0.73081,2.12177 c -0.40195,1.16697 -0.94494,2.56172 -1.20664,3.09944 l -0.47582,0.97768 -1.42857,0.31139 c -1.51573,0.33039 -3.84375,0.39083 -4.95609,0.12867 z"
       id="path3380"
       inkscape:connector-curvature="0"
       inkscape:export-xdpi="90"
       inkscape:export-ydpi="90" />
    <path
       style="fill:#784421"
       d="m 336.52553,143.69242 c -2.46269,-1.29553 -5.36181,-2.85285 -6.4425,-3.46071 l -1.96488,-1.10519 -0.3219,-1.87803 -0.32191,-1.87803 0.56211,-2.45069 c 0.50532,-2.20306 0.63849,-2.54972 1.31798,-3.43076 1.37762,-1.78627 2.28962,-2.69283 3.8216,-3.79878 1.47407,-1.06415 1.55863,-1.09918 3.06436,-1.26927 1.86139,-0.21027 6.15783,-0.0804 6.90561,0.20866 0.29464,0.11392 1.37946,0.69089 2.41071,1.28216 l 1.875,1.07503 1.14236,1.97451 1.14236,1.97451 -0.10602,3.05768 c -0.0643,1.85475 -0.21407,3.46088 -0.38066,4.08254 -0.67162,2.50624 -2.38713,4.9872 -4.27135,6.17719 -1.50502,0.95051 -3.25313,1.81804 -3.63767,1.80526 -0.17467,-0.006 -2.33252,-1.07054 -4.7952,-2.36608 z m 6.53074,-2.38974 1.33883,-0.33135 0.60747,-1.41724 c 0.3341,-0.77948 0.95501,-2.44875 1.3798,-3.70948 l 0.77234,-2.29224 -1.02221,-1.93495 -1.02222,-1.93495 -1.875,-0.69064 c -1.80531,-0.66497 -1.95796,-0.69064 -4.10714,-0.69064 -2.10509,0 -2.32545,0.0349 -3.87147,0.61285 l -1.63933,0.61284 -1.06626,2.42287 -1.06626,2.42287 0.14971,1.51786 c 0.0823,0.83482 0.15477,1.79379 0.16095,2.13104 0.0198,1.07904 2.12317,2.76811 4.38623,3.52224 1.01139,0.33703 5.12095,0.19291 6.87456,-0.24108 z"
       id="path3382"
       inkscape:connector-curvature="0"
       inkscape:export-xdpi="90"
       inkscape:export-ydpi="90" />
  </g>
</svg>
