EESchema Schematic File Version 2
LIBS:power
LIBS:device
LIBS:transistors
LIBS:conn
LIBS:linear
LIBS:regul
LIBS:74xx
LIBS:cmos4000
LIBS:adc-dac
LIBS:memory
LIBS:xilinx
LIBS:microcontrollers
LIBS:dsp
LIBS:microchip
LIBS:analog_switches
LIBS:motorola
LIBS:texas
LIBS:intel
LIBS:audio
LIBS:interface
LIBS:digital-audio
LIBS:philips
LIBS:display
LIBS:cypress
LIBS:siliconi
LIBS:opto
LIBS:atmel
LIBS:contrib
LIBS:valves
LIBS:ESP8266
LIBS:HiberBear-cache
EELAYER 25 0
EELAYER END
$Descr A4 11693 8268
encoding utf-8
Sheet 1 1
Title ""
Date ""
Rev ""
Comp ""
Comment1 ""
Comment2 ""
Comment3 ""
Comment4 ""
$EndDescr
$Comp
L BC547 T1
U 1 1 5B9F73A6
P 5150 1750
F 0 "T1" H 5350 1825 50  0000 L CNN
F 1 "BC547" H 5350 1750 50  0000 L CNN
F 2 "TO-92" H 5350 1675 50  0000 L CIN
F 3 "" H 5150 1750 50  0000 L CNN
	1    5150 1750
	1    0    0    -1  
$EndComp
$Comp
L BC547 T2
U 1 1 5B9F74C8
P 5150 2700
F 0 "T2" H 5350 2775 50  0000 L CNN
F 1 "BC547" H 5350 2700 50  0000 L CNN
F 2 "TO-92" H 5350 2625 50  0000 L CIN
F 3 "" H 5150 2700 50  0000 L CNN
	1    5150 2700
	1    0    0    -1  
$EndComp
$Comp
L LED_RCBG LED1
U 1 1 5B9F75A3
P 10350 1300
F 0 "LED1" H 10350 1650 50  0000 C CNN
F 1 "LED_RGB_C" H 10350 950 50  0000 C CNN
F 2 "" H 10350 1250 50  0000 C CNN
F 3 "" H 10350 1250 50  0000 C CNN
	1    10350 1300
	-1   0    0    1   
$EndComp
$Comp
L R_Small R2
U 1 1 5B9F76C0
P 9800 1300
F 0 "R2" H 9830 1320 50  0000 L CNN
F 1 "47" H 9830 1260 50  0000 L CNN
F 2 "" H 9800 1300 50  0000 C CNN
F 3 "" H 9800 1300 50  0000 C CNN
	1    9800 1300
	0    -1   -1   0   
$EndComp
$Comp
L GND #PWR?
U 1 1 5B9F77B1
P 10800 1600
F 0 "#PWR?" H 10800 1350 50  0001 C CNN
F 1 "GND" H 10800 1450 50  0000 C CNN
F 2 "" H 10800 1600 50  0000 C CNN
F 3 "" H 10800 1600 50  0000 C CNN
	1    10800 1600
	1    0    0    -1  
$EndComp
$Comp
L R_Small R1
U 1 1 5B9F7B18
P 9800 1100
F 0 "R1" H 9830 1120 50  0000 L CNN
F 1 "47" H 9830 1060 50  0000 L CNN
F 2 "" H 9800 1100 50  0000 C CNN
F 3 "" H 9800 1100 50  0000 C CNN
	1    9800 1100
	0    -1   -1   0   
$EndComp
$Comp
L R_Small R3
U 1 1 5B9F7B75
P 9800 1500
F 0 "R3" H 9830 1520 50  0000 L CNN
F 1 "47" H 9830 1460 50  0000 L CNN
F 2 "" H 9800 1500 50  0000 C CNN
F 3 "" H 9800 1500 50  0000 C CNN
	1    9800 1500
	0    -1   -1   0   
$EndComp
$Comp
L R_Small R5
U 1 1 5B9F7BD4
P 4750 1750
F 0 "R5" H 4780 1770 50  0000 L CNN
F 1 "1k" H 4780 1710 50  0000 L CNN
F 2 "" H 4750 1750 50  0000 C CNN
F 3 "" H 4750 1750 50  0000 C CNN
	1    4750 1750
	0    -1   -1   0   
$EndComp
$Comp
L R_Small R6
U 1 1 5B9F7C67
P 4700 2700
F 0 "R6" H 4730 2720 50  0000 L CNN
F 1 "1k" H 4730 2660 50  0000 L CNN
F 2 "" H 4700 2700 50  0000 C CNN
F 3 "" H 4700 2700 50  0000 C CNN
	1    4700 2700
	0    -1   -1   0   
$EndComp
Text GLabel 9550 1500 0    60   Input ~ 0
GPIO12
Text GLabel 9550 1300 0    60   Input ~ 0
GPIO13
Text GLabel 9550 1100 0    60   Input ~ 0
GPIO14
$Comp
L R_Small R4
U 1 1 5B9F80AE
P 10000 2200
F 0 "R4" H 10030 2220 50  0000 L CNN
F 1 "1k" H 10030 2160 50  0000 L CNN
F 2 "" H 10000 2200 50  0000 C CNN
F 3 "" H 10000 2200 50  0000 C CNN
	1    10000 2200
	1    0    0    -1  
$EndComp
$Comp
L SW_PUSH SW?
U 1 1 5B9F8151
P 10000 2700
F 0 "SW?" H 10150 2810 50  0000 C CNN
F 1 "Snooze" H 10000 2620 50  0000 C CNN
F 2 "" H 10000 2700 50  0000 C CNN
F 3 "" H 10000 2700 50  0000 C CNN
	1    10000 2700
	0    1    1    0   
$EndComp
$Comp
L GND #PWR?
U 1 1 5B9F824A
P 10000 3100
F 0 "#PWR?" H 10000 2850 50  0001 C CNN
F 1 "GND" H 10000 2950 50  0000 C CNN
F 2 "" H 10000 3100 50  0000 C CNN
F 3 "" H 10000 3100 50  0000 C CNN
	1    10000 3100
	1    0    0    -1  
$EndComp
$Comp
L +3.3V #PWR?
U 1 1 5B9F8272
P 10000 1950
F 0 "#PWR?" H 10000 1800 50  0001 C CNN
F 1 "+3.3V" H 10000 2090 50  0000 C CNN
F 2 "" H 10000 1950 50  0000 C CNN
F 3 "" H 10000 1950 50  0000 C CNN
	1    10000 1950
	1    0    0    -1  
$EndComp
Text GLabel 9550 2400 0    60   Input ~ 0
GPIO16
Text GLabel 9350 4250 0    60   Input ~ 0
A0
$Comp
L POT RV?
U 1 1 5B9F8A50
P 10050 4250
F 0 "RV?" H 10050 4170 50  0000 C CNN
F 1 "100k" H 10050 4250 50  0000 C CNN
F 2 "" H 10050 4250 50  0000 C CNN
F 3 "" H 10050 4250 50  0000 C CNN
	1    10050 4250
	0    -1   -1   0   
$EndComp
$Comp
L +3.3V #PWR?
U 1 1 5B9F8D1B
P 10050 4000
F 0 "#PWR?" H 10050 3850 50  0001 C CNN
F 1 "+3.3V" H 10050 4140 50  0000 C CNN
F 2 "" H 10050 4000 50  0000 C CNN
F 3 "" H 10050 4000 50  0000 C CNN
	1    10050 4000
	1    0    0    -1  
$EndComp
$Comp
L GND #PWR?
U 1 1 5B9F8D45
P 10050 4500
F 0 "#PWR?" H 10050 4250 50  0001 C CNN
F 1 "GND" H 10050 4350 50  0000 C CNN
F 2 "" H 10050 4500 50  0000 C CNN
F 3 "" H 10050 4500 50  0000 C CNN
	1    10050 4500
	1    0    0    -1  
$EndComp
$Comp
L SWITCH_INV SW?
U 1 1 5B9F91E8
P 6850 2650
F 0 "SW?" H 6650 2800 50  0000 C CNN
F 1 "SWITCH_INV" H 6700 2500 50  0000 C CNN
F 2 "" H 6850 2650 50  0000 C CNN
F 3 "" H 6850 2650 50  0000 C CNN
	1    6850 2650
	-1   0    0    1   
$EndComp
$Comp
L SWITCH_INV SW?
U 1 1 5B9F929F
P 6850 1800
F 0 "SW?" H 6650 1950 50  0000 C CNN
F 1 "SWITCH_INV" H 6700 1650 50  0000 C CNN
F 2 "" H 6850 1800 50  0000 C CNN
F 3 "" H 6850 1800 50  0000 C CNN
	1    6850 1800
	-1   0    0    1   
$EndComp
$Comp
L INDUCTOR L2
U 1 1 5B9F9370
P 6700 2350
F 0 "L2" V 6650 2350 50  0000 C CNN
F 1 "45" V 6800 2547 50  0000 C CNN
F 2 "" H 6700 2350 50  0000 C CNN
F 3 "" H 6700 2350 50  0000 C CNN
	1    6700 2350
	0    -1   -1   0   
$EndComp
$Comp
L INDUCTOR L1
U 1 1 5B9F93F1
P 6700 1450
F 0 "L1" V 6650 1450 50  0000 C CNN
F 1 "45" V 6800 1647 50  0000 C CNN
F 2 "" H 6700 1450 50  0000 C CNN
F 3 "" H 6700 1450 50  0000 C CNN
	1    6700 1450
	0    -1   -1   0   
$EndComp
$Comp
L D D1
U 1 1 5B9F947E
P 6750 1150
F 0 "D1" H 6750 1250 50  0000 C CNN
F 1 "1N4148" H 6750 1050 50  0000 C CNN
F 2 "" H 6750 1150 50  0000 C CNN
F 3 "" H 6750 1150 50  0000 C CNN
	1    6750 1150
	-1   0    0    1   
$EndComp
$Comp
L D D2
U 1 1 5B9F9507
P 6750 2150
F 0 "D2" H 6750 2250 50  0000 C CNN
F 1 "1N4148" H 6750 2050 50  0000 C CNN
F 2 "" H 6750 2150 50  0000 C CNN
F 3 "" H 6750 2150 50  0000 C CNN
	1    6750 2150
	-1   0    0    1   
$EndComp
$Comp
L +3.3V #PWR?
U 1 1 5B9F9E7F
P 7950 1150
F 0 "#PWR?" H 7950 1000 50  0001 C CNN
F 1 "+3.3V" H 7950 1290 50  0000 C CNN
F 2 "" H 7950 1150 50  0000 C CNN
F 3 "" H 7950 1150 50  0000 C CNN
	1    7950 1150
	1    0    0    -1  
$EndComp
$Comp
L +3.3V #PWR?
U 1 1 5B9F9EB5
P 7950 2150
F 0 "#PWR?" H 7950 2000 50  0001 C CNN
F 1 "+3.3V" H 7950 2290 50  0000 C CNN
F 2 "" H 7950 2150 50  0000 C CNN
F 3 "" H 7950 2150 50  0000 C CNN
	1    7950 2150
	1    0    0    -1  
$EndComp
Wire Wire Line
	10650 1300 10800 1300
Wire Wire Line
	10800 1300 10800 1600
Wire Wire Line
	9900 1300 10050 1300
Wire Wire Line
	9900 1100 10050 1100
Wire Wire Line
	9900 1500 10050 1500
Wire Wire Line
	9550 1100 9700 1100
Wire Wire Line
	9550 1300 9700 1300
Wire Wire Line
	9550 1500 9700 1500
Wire Wire Line
	10000 1950 10000 2100
Wire Wire Line
	10000 2300 10000 2400
Wire Wire Line
	10000 3000 10000 3100
Wire Wire Line
	10000 2400 9550 2400
Connection ~ 10000 2400
Wire Wire Line
	9900 4250 9350 4250
Wire Wire Line
	10050 4100 10050 4000
Wire Wire Line
	10050 4400 10050 4500
Wire Wire Line
	5250 1550 5250 1450
Wire Wire Line
	5250 1450 6400 1450
Wire Wire Line
	7000 1450 7950 1450
Wire Wire Line
	7950 1450 7950 1150
Wire Wire Line
	6900 1150 7100 1150
Wire Wire Line
	7100 1150 7100 1450
Connection ~ 7100 1450
Wire Wire Line
	6600 1150 6400 1150
Wire Wire Line
	6400 1150 6400 1450
Connection ~ 6400 1450
Wire Wire Line
	4850 1750 4950 1750
Wire Wire Line
	4800 2700 4950 2700
Wire Wire Line
	5250 2500 5250 2350
Wire Wire Line
	5250 2350 6400 2350
Wire Wire Line
	7000 2350 7950 2350
Wire Wire Line
	7950 2350 7950 2150
Wire Wire Line
	6900 2150 7100 2150
Wire Wire Line
	7100 2150 7100 2350
Connection ~ 7100 2350
Wire Wire Line
	6600 2150 6400 2150
Wire Wire Line
	6400 2150 6400 2350
Connection ~ 6400 2350
Text GLabel 7750 2650 2    60   Input ~ 0
AudioR
Text GLabel 7750 1800 2    60   Input ~ 0
AudioL
Wire Wire Line
	7350 1800 7750 1800
Wire Wire Line
	7350 2650 7750 2650
Text GLabel 6150 2550 0    60   Input ~ 0
RadioR
Text GLabel 6150 1700 0    60   Input ~ 0
RadioL
Text GLabel 6150 1900 0    60   Input ~ 0
PCM-L
Text GLabel 6150 2750 0    60   Input ~ 0
PCM-R
Wire Wire Line
	6150 1700 6350 1700
Wire Wire Line
	6150 1900 6350 1900
Wire Wire Line
	6150 2550 6350 2550
Wire Wire Line
	6150 2750 6350 2750
$Comp
L GND #PWR?
U 1 1 5B9FA781
P 5250 2150
F 0 "#PWR?" H 5250 1900 50  0001 C CNN
F 1 "GND" H 5250 2000 50  0000 C CNN
F 2 "" H 5250 2150 50  0000 C CNN
F 3 "" H 5250 2150 50  0000 C CNN
	1    5250 2150
	1    0    0    -1  
$EndComp
$Comp
L GND #PWR?
U 1 1 5B9FA7B7
P 5250 3050
F 0 "#PWR?" H 5250 2800 50  0001 C CNN
F 1 "GND" H 5250 2900 50  0000 C CNN
F 2 "" H 5250 3050 50  0000 C CNN
F 3 "" H 5250 3050 50  0000 C CNN
	1    5250 3050
	1    0    0    -1  
$EndComp
Text GLabel 4400 1750 0    60   Input ~ 0
GPIO0
Text GLabel 4400 2700 0    60   Input ~ 0
GPIO1
Wire Wire Line
	4400 1750 4650 1750
Wire Wire Line
	4400 2700 4600 2700
Wire Wire Line
	5250 2900 5250 3050
Wire Wire Line
	5250 1950 5250 2150
$Comp
L NodeMCU1.0(ESP-12E) U?
U 1 1 5B9F9430
P 2100 2350
F 0 "U?" H 2100 3200 60  0000 C CNN
F 1 "NodeMCU1.0(ESP-12E)" H 2100 1500 60  0000 C CNN
F 2 "" H 1500 1500 60  0000 C CNN
F 3 "" H 1500 1500 60  0000 C CNN
	1    2100 2350
	1    0    0    -1  
$EndComp
Text GLabel 3200 2850 2    60   Input ~ 0
GPIO1
Wire Wire Line
	3200 2850 2900 2850
Text GLabel 3200 2650 2    60   Input ~ 0
GPIO15
Text GLabel 3200 2550 2    60   Input ~ 0
GPIO13
Text GLabel 3200 2350 2    60   Input ~ 0
GPIO14
Text GLabel 3200 2450 2    60   Input ~ 0
GPIO12
Text GLabel 3200 1650 2    60   Input ~ 0
GPIO16
Wire Wire Line
	3200 1650 2900 1650
Wire Wire Line
	3200 2350 2900 2350
Wire Wire Line
	3200 2450 2900 2450
Wire Wire Line
	3200 2550 2900 2550
Wire Wire Line
	3200 2650 2900 2650
Text GLabel 3200 1950 2    60   Input ~ 0
GPIO0
Wire Wire Line
	3200 1950 2900 1950
Text GLabel 1100 1650 0    60   Input ~ 0
A0
Text GLabel 1100 1950 0    60   Input ~ 0
GPIO10
Wire Wire Line
	1100 1650 1300 1650
Wire Wire Line
	1100 1950 1300 1950
Text GLabel 3200 1750 2    60   Input ~ 0
I2C_SCL
Text GLabel 3200 1850 2    60   Input ~ 0
I2C_SDA
Wire Wire Line
	3200 1750 2900 1750
Wire Wire Line
	3200 1850 2900 1850
$Comp
L +3.3V #PWR?
U 1 1 5B9FDA97
P 800 2450
F 0 "#PWR?" H 800 2300 50  0001 C CNN
F 1 "+3.3V" H 800 2590 50  0000 C CNN
F 2 "" H 800 2450 50  0000 C CNN
F 3 "" H 800 2450 50  0000 C CNN
	1    800  2450
	1    0    0    -1  
$EndComp
$Comp
L GND #PWR?
U 1 1 5B9FDACF
P 800 3150
F 0 "#PWR?" H 800 2900 50  0001 C CNN
F 1 "GND" H 800 3000 50  0000 C CNN
F 2 "" H 800 3150 50  0000 C CNN
F 3 "" H 800 3150 50  0000 C CNN
	1    800  3150
	1    0    0    -1  
$EndComp
Wire Wire Line
	800  2450 800  2650
Wire Wire Line
	800  2650 1300 2650
Wire Wire Line
	800  2950 1300 2950
Wire Wire Line
	800  2950 800  3150
$Comp
L CONN_01X04 P4.1
U 1 1 5B9FE662
P 7350 4550
F 0 "P4.1" H 7350 4800 50  0000 C CNN
F 1 "AP3216" V 7450 4550 50  0000 C CNN
F 2 "" H 7350 4550 50  0000 C CNN
F 3 "" H 7350 4550 50  0000 C CNN
	1    7350 4550
	1    0    0    -1  
$EndComp
$Comp
L CONN_01X04 P3.1
U 1 1 5B9FE703
P 6000 4550
F 0 "P3.1" H 6000 4800 50  0000 C CNN
F 1 "RDA 5807M" V 6100 4550 50  0000 C CNN
F 2 "" H 6000 4550 50  0000 C CNN
F 3 "" H 6000 4550 50  0000 C CNN
	1    6000 4550
	1    0    0    -1  
$EndComp
$Comp
L CONN_01X04 P2
U 1 1 5B9FE746
P 4650 4550
F 0 "P2" H 4650 4800 50  0000 C CNN
F 1 "BME-280" V 4750 4550 50  0000 C CNN
F 2 "" H 4650 4550 50  0000 C CNN
F 3 "" H 4650 4550 50  0000 C CNN
	1    4650 4550
	1    0    0    -1  
$EndComp
Text GLabel 1100 5150 0    60   Input ~ 0
I2C_SCL
Text GLabel 1100 5350 0    60   Input ~ 0
I2C_SDA
Wire Wire Line
	1100 5150 6950 5150
Wire Wire Line
	6950 5150 6950 4600
Wire Wire Line
	6950 4600 7150 4600
Wire Wire Line
	1100 5350 7050 5350
Wire Wire Line
	7050 5350 7050 4700
Wire Wire Line
	7050 4700 7150 4700
Wire Wire Line
	3300 4700 3200 4700
Wire Wire Line
	3200 4700 3200 5350
Connection ~ 3200 5350
Wire Wire Line
	3300 4600 3100 4600
Wire Wire Line
	3100 4600 3100 5150
Connection ~ 3100 5150
Wire Wire Line
	4450 4700 4300 4700
Wire Wire Line
	4300 4700 4300 5350
Connection ~ 4300 5350
Wire Wire Line
	4450 4600 4200 4600
Wire Wire Line
	4200 4600 4200 5150
Connection ~ 4200 5150
Wire Wire Line
	5800 4700 5650 4700
Wire Wire Line
	5650 4700 5650 5350
Connection ~ 5650 5350
Wire Wire Line
	5800 4600 5550 4600
Wire Wire Line
	5550 4600 5550 5150
Connection ~ 5550 5150
$Comp
L GND #PWR?
U 1 1 5B9FEBDE
P 950 4900
F 0 "#PWR?" H 950 4650 50  0001 C CNN
F 1 "GND" H 950 4750 50  0000 C CNN
F 2 "" H 950 4900 50  0000 C CNN
F 3 "" H 950 4900 50  0000 C CNN
	1    950  4900
	1    0    0    -1  
$EndComp
$Comp
L +3.3V #PWR?
U 1 1 5B9FEC1E
P 950 4500
F 0 "#PWR?" H 950 4350 50  0001 C CNN
F 1 "+3.3V" H 950 4640 50  0000 C CNN
F 2 "" H 950 4500 50  0000 C CNN
F 3 "" H 950 4500 50  0000 C CNN
	1    950  4500
	1    0    0    -1  
$EndComp
Wire Wire Line
	950  4900 6850 4900
Wire Wire Line
	6850 4900 6850 4500
Wire Wire Line
	6850 4500 7150 4500
Wire Wire Line
	5450 4900 5450 4500
Wire Wire Line
	5450 4500 5800 4500
Connection ~ 5450 4900
Wire Wire Line
	4100 4900 4100 4500
Wire Wire Line
	4100 4500 4450 4500
Connection ~ 4100 4900
Wire Wire Line
	3000 4900 3000 4500
Wire Wire Line
	3000 4500 3300 4500
Connection ~ 3000 4900
Wire Wire Line
	950  4500 950  4800
Wire Wire Line
	950  4800 6750 4800
Wire Wire Line
	6750 4800 6750 4400
Wire Wire Line
	6750 4400 7150 4400
Wire Wire Line
	5350 4800 5350 4400
Wire Wire Line
	5350 4400 5800 4400
Connection ~ 5350 4800
Wire Wire Line
	4000 4800 4000 4400
Wire Wire Line
	4000 4400 4450 4400
Connection ~ 4000 4800
Wire Wire Line
	2900 4800 2900 4400
Wire Wire Line
	2900 4400 3300 4400
Connection ~ 2900 4800
$Comp
L SPEAKER SP?
U 1 1 5BA00CDD
P 10350 5300
F 0 "SP?" H 10250 5550 50  0000 C CNN
F 1 "Buzzer" H 10250 5050 50  0000 C CNN
F 2 "" H 10350 5300 50  0000 C CNN
F 3 "" H 10350 5300 50  0000 C CNN
	1    10350 5300
	1    0    0    -1  
$EndComp
$Comp
L GND #PWR?
U 1 1 5BA00D60
P 10050 5850
F 0 "#PWR?" H 10050 5600 50  0001 C CNN
F 1 "GND" H 10050 5700 50  0000 C CNN
F 2 "" H 10050 5850 50  0000 C CNN
F 3 "" H 10050 5850 50  0000 C CNN
	1    10050 5850
	1    0    0    -1  
$EndComp
Text GLabel 9300 5200 0    60   Input ~ 0
GPIO10
Wire Wire Line
	9300 5200 10050 5200
Wire Wire Line
	10050 5400 10050 5850
$Comp
L CONN_01X04 P3.2
U 1 1 5BA00F69
P 6000 4000
F 0 "P3.2" H 6000 4250 50  0000 C CNN
F 1 "Radio analog" V 6100 4000 50  0000 C CNN
F 2 "" H 6000 4000 50  0000 C CNN
F 3 "" H 6000 4000 50  0000 C CNN
	1    6000 4000
	1    0    0    -1  
$EndComp
Text GLabel 5350 3850 0    60   Input ~ 0
Ant
Text GLabel 5350 3950 0    60   Input ~ 0
RadioL
Text GLabel 5350 4050 0    60   Input ~ 0
RadioR
Wire Wire Line
	5800 4150 5250 4150
Wire Wire Line
	5250 4150 5250 4900
Connection ~ 5250 4900
Wire Wire Line
	5350 4050 5800 4050
Wire Wire Line
	5350 3950 5800 3950
Wire Wire Line
	5350 3850 5800 3850
$Comp
L CONN_01X04 P5.1
U 1 1 5BA0149E
P 2050 6750
F 0 "P5.1" H 2050 7000 50  0000 C CNN
F 1 "PCM5102 I2S" V 2150 6750 50  0000 C CNN
F 2 "" H 2050 6750 50  0000 C CNN
F 3 "" H 2050 6750 50  0000 C CNN
	1    2050 6750
	1    0    0    -1  
$EndComp
$Comp
L CONN_01X04 P5.2
U 1 1 5BA0153D
P 2450 6750
F 0 "P5.2" H 2450 7000 50  0000 C CNN
F 1 "PCM5102 analog" V 2550 6750 50  0000 C CNN
F 2 "" H 2450 6750 50  0000 C CNN
F 3 "" H 2450 6750 50  0000 C CNN
	1    2450 6750
	-1   0    0    1   
$EndComp
Text GLabel 3200 2050 2    60   Input ~ 0
GPIO2
Text GLabel 3200 2750 2    60   Input ~ 0
GPIO3
Wire Wire Line
	3200 2050 2900 2050
Wire Wire Line
	2900 2750 3200 2750
Text GLabel 1100 6700 0    60   Input ~ 0
GPIO2
Text GLabel 1100 6800 0    60   Input ~ 0
GPIO3
Text GLabel 1100 6900 0    60   Input ~ 0
GPIO15
Wire Wire Line
	1100 6700 1850 6700
Wire Wire Line
	1100 6800 1850 6800
Wire Wire Line
	1100 6900 1850 6900
$Comp
L +3.3V #PWR?
U 1 1 5BA01DA2
P 1200 6350
F 0 "#PWR?" H 1200 6200 50  0001 C CNN
F 1 "+3.3V" H 1200 6490 50  0000 C CNN
F 2 "" H 1200 6350 50  0000 C CNN
F 3 "" H 1200 6350 50  0000 C CNN
	1    1200 6350
	1    0    0    -1  
$EndComp
Wire Wire Line
	1200 6350 1200 6600
Wire Wire Line
	1200 6600 1850 6600
Text GLabel 2900 6600 2    60   Input ~ 0
PCM-R
Text GLabel 2900 6700 2    60   Input ~ 0
PCM-L
Wire Wire Line
	2900 6600 2650 6600
Wire Wire Line
	2900 6700 2650 6700
$Comp
L GND #PWR?
U 1 1 5BA020BF
P 2750 7150
F 0 "#PWR?" H 2750 6900 50  0001 C CNN
F 1 "GND" H 2750 7000 50  0000 C CNN
F 2 "" H 2750 7150 50  0000 C CNN
F 3 "" H 2750 7150 50  0000 C CNN
	1    2750 7150
	1    0    0    -1  
$EndComp
Wire Wire Line
	2650 6900 2750 6900
Wire Wire Line
	2750 6900 2750 7150
$Comp
L SPEAKER SP?
U 1 1 5BA02226
P 6200 6200
F 0 "SP?" H 6100 6450 50  0000 C CNN
F 1 "SPEAKER" H 6100 5950 50  0000 C CNN
F 2 "" H 6200 6200 50  0000 C CNN
F 3 "" H 6200 6200 50  0000 C CNN
	1    6200 6200
	1    0    0    -1  
$EndComp
$Comp
L SPEAKER SP?
U 1 1 5BA02285
P 6200 7000
F 0 "SP?" H 6100 7250 50  0000 C CNN
F 1 "SPEAKER" H 6100 6750 50  0000 C CNN
F 2 "" H 6200 7000 50  0000 C CNN
F 3 "" H 6200 7000 50  0000 C CNN
	1    6200 7000
	1    0    0    -1  
$EndComp
$Comp
L CONN_01X04 P6
U 1 1 5BA02302
P 4800 6200
F 0 "P6" H 4800 6450 50  0000 C CNN
F 1 "Sterio Amp 2*3W" V 4900 6200 50  0000 C CNN
F 2 "" H 4800 6200 50  0000 C CNN
F 3 "" H 4800 6200 50  0000 C CNN
	1    4800 6200
	1    0    0    -1  
$EndComp
Text GLabel 4000 6050 0    60   Input ~ 0
AudioL
Text GLabel 4000 6150 0    60   Input ~ 0
AudioR
Wire Wire Line
	4000 6150 4600 6150
Wire Wire Line
	4600 6350 4600 6550
Wire Wire Line
	4600 6550 5350 6550
Wire Wire Line
	5350 6550 5350 6100
Wire Wire Line
	5350 6100 5900 6100
Wire Wire Line
	4600 6250 4500 6250
Wire Wire Line
	4500 6250 4500 6900
Wire Wire Line
	4500 6900 5900 6900
$Comp
L GND #PWR?
U 1 1 5BA026F9
P 5700 6600
F 0 "#PWR?" H 5700 6350 50  0001 C CNN
F 1 "GND" H 5700 6450 50  0000 C CNN
F 2 "" H 5700 6600 50  0000 C CNN
F 3 "" H 5700 6600 50  0000 C CNN
	1    5700 6600
	1    0    0    -1  
$EndComp
$Comp
L GND #PWR?
U 1 1 5BA02747
P 5700 7400
F 0 "#PWR?" H 5700 7150 50  0001 C CNN
F 1 "GND" H 5700 7250 50  0000 C CNN
F 2 "" H 5700 7400 50  0000 C CNN
F 3 "" H 5700 7400 50  0000 C CNN
	1    5700 7400
	1    0    0    -1  
$EndComp
Wire Wire Line
	5900 6300 5700 6300
Wire Wire Line
	5700 6300 5700 6600
Wire Wire Line
	5900 7100 5700 7100
Wire Wire Line
	5700 7100 5700 7400
Wire Wire Line
	4600 6050 4000 6050
$Comp
L CONN_01X04 P4.2
U 1 1 5BA8FD94
P 7350 4000
F 0 "P4.2" H 7350 4250 50  0000 C CNN
F 1 "CONN_01X04" V 7450 4000 50  0000 C CNN
F 2 "" H 7350 4000 50  0000 C CNN
F 3 "" H 7350 4000 50  0000 C CNN
F 4 "VLED" H 7114 4197 60  0000 C CNN "Field4"
	1    7350 4000
	1    0    0    -1  
$EndComp
$Comp
L R R7
U 1 1 5BA8FEF5
P 6800 3500
F 0 "R7" V 6880 3500 50  0000 C CNN
F 1 "220" V 6800 3500 50  0000 C CNN
F 2 "" V 6730 3500 50  0000 C CNN
F 3 "" H 6800 3500 50  0000 C CNN
	1    6800 3500
	1    0    0    -1  
$EndComp
Wire Wire Line
	6800 3850 7150 3850
$Comp
L +3.3V #PWR?
U 1 1 5BA90011
P 6800 3200
F 0 "#PWR?" H 6800 3050 50  0001 C CNN
F 1 "+3.3V" H 6800 3340 50  0000 C CNN
F 2 "" H 6800 3200 50  0000 C CNN
F 3 "" H 6800 3200 50  0000 C CNN
	1    6800 3200
	1    0    0    -1  
$EndComp
Wire Wire Line
	6800 3100 6800 3350
Wire Wire Line
	6800 3650 6800 3850
$Comp
L CONN_01X04 P1
U 1 1 5B9FE7B3
P 3500 4550
F 0 "P1" H 3500 4800 50  0000 C CNN
F 1 "0,96\" OLED" V 3600 4550 50  0000 C CNN
F 2 "" H 3500 4550 50  0000 C CNN
F 3 "" H 3500 4550 50  0000 C CNN
	1    3500 4550
	1    0    0    -1  
$EndComp
$EndSCHEMATC
